<?xml version="1.0" encoding="utf-8"?>
<!-- Generator: Adobe Illustrator 17.0.0, SVG Export Plug-In . SVG Version: 6.00 Build 0)  -->
<!DOCTYPE svg PUBLIC "-//W3C//DTD SVG 1.1//EN" "http://www.w3.org/Graphics/SVG/1.1/DTD/svg11.dtd">
<svg version="1.1" id="Layer_1" xmlns="http://www.w3.org/2000/svg" xmlns:xlink="http://www.w3.org/1999/xlink" x="0px" y="0px"
	 width="1332.016px" height="229.236px" viewBox="0 0 1332.016 229.236" enable-background="new 0 0 1332.016 229.236"
	 xml:space="preserve">
<g id="shape">
	<defs>
		<rect id="SVGID_1_" width="1332.016" height="229.236"/>
	</defs>
	<clipPath id="SVGID_2_">
		<use xlink:href="#SVGID_1_"  overflow="visible"/>
	</clipPath>
	<path clip-path="url(#SVGID_2_)" fill="#2B4799" d="M0,0.107l0.016,229.128h1332L1332,0
		c-161.228,18.512-401.987,30.233-668.453,30.233C397.598,30.232,161.215,18.558,0,0.107"/>
</g>
</svg>
